Analysis of Raspberry Ketone Metabolites Using UHPLC-QqQ-MS/MS in Mice Plasma and Brain
…
##       Level
## Tissue Blank Enz
##     Pl     9  18
##     Br    27  37

for (i in 1: nrow(conc.df)){
  if (conc.df$conc.ng.mL[i]<0) {conc.df$conc.ng.mL[i] = 0} # correct all negative values to zeros
}

#3) Compute average & standard deviation of the concentration in Enz, blank & spiked (A.B.C.D) samples
conc.stats.df = conc.df %>% group_by(Tissue, compound, Level) %>%
  summarise(conc.mean = mean(conc.ng.mL), conc.var.simple = var(conc.ng.mL), conc.std.simple = sd(conc.ng.mL))
conc.stats.df

## # A tibble: 312 x 6
## # Groups:   Tissue, compound [52]
##    Tissue compound Level conc.mean conc.var.simple conc.std.simple
##    <ord>  <chr>    <chr>     <dbl>           <dbl>           <dbl>
##  1 Pl     3-HBA    A       1714.         12161.            110.   
##  2 Pl     3-HBA    B        807.          2817.             53.1  
##  3 Pl     3-HBA    Blank      7.63           0.174           0.417
##  4 Pl     3-HBA    C        148.            33.2             5.76 
##  5 Pl     3-HBA    D         21.3            2.44            1.56 
##  6 Pl     3-HBA    Enz        7.08           1.33            1.15 
##  7 Pl     3-HPAA   A       1793.         14774.            122.   
##  8 Pl     3-HPAA   B        847.          5211.             72.2  
##  9 Pl     3-HPAA   Blank     60.6            2.17            1.47 
## 10 Pl     3-HPAA   C        205.           116.             10.8  
## # … with 302 more rows
…
